{
    "rounds": 13,
    "leagueMembers": [
        {
            "id": 1,
            "name": "RL",
            "firstKeeper": {
                "id": 1,
                "name": "Rob Gronkowski",
                "round": 3,
                "penalty": 5
            },
            "secondKeeper": null
        },
        {
            "id": 2,
            "name": "EM",
            "firstKeeper": {
                "id": 2,
                "name": "Randall Cobb",
                "round": 3,
                "penalty": 5
            },
            "secondKeeper": {
                "id": 3,
                "name": "Carlos Hyde",
                "round": 9,
                "penalty": 11
            }
        },
        {
            "id": 3,
            "name": "JC",
            "firstKeeper": {
                "id": 4,
                "name": "Brandin Cooks",
                "round": 6,
                "penalty": 8
            },
            "secondKeeper": {
                "id": 5,
                "name": "Ben Roethlesberger",
                "round": 12,
                "penalty": 13
            }
        },
        {
            "id": 4,
            "name": "RH",
            "firstKeeper": null,
            "secondKeeper": null
        },
        {
            "id": 5,
            "name": "MC",
            "firstKeeper": {
                "id": 6,
                "name": "Mike Evans",
                "round": 11,
                "penalty": 13
            },
            "secondKeeper": {
                "id": 7,
                "name": "Teddy Bridgewater",
                "round": 10,
                "penalty": 0
            }
        },
        {
            "id": 6,
            "name": "BK",
            "firstKeeper": {
                "id": 8,
                "name": "Eddie Lacy",
                "round": 5,
                "penalty": 7
            },
            "secondKeeper": {
                "id": 9,
                "name": "Odell Beckham",
                "round": 11,
                "penalty": 0
            }
        },
        {
            "id": 7,
            "name": "JL",
            "firstKeeper": {
                "id": 10,
                "name": "Greg Olsen",
                "round": 11,
                "penalty": 0
            },
            "secondKeeper": null
        },
        {
            "id": 8,
            "name": "SM",
            "firstKeeper": {
                "id": 11,
                "name": "CJ Anderson",
                "round": 11,
                "penalty": 0
            },
            "secondKeeper": null
        },
        {
            "id": 9,
            "name": "DH",
            "firstKeeper": {
                "id": 12,
                "name": "Allen Robinson",
                "round": 11,
                "penalty": 0
            },
            "secondKeeper": null
        },
        {
            "id": 10,
            "name": "BS",
            "firstKeeper": {
                "id": 13,
                "name": "Jarvis Landry",
                "round": 11,
                "penalty": 0
            },
            "secondKeeper": {
                "id": 14,
                "name": "Jeremy Hill",
                "round": 13,
                "penalty": 0
            }
        },
        {
            "id": 11,
            "name": "JT",
            "firstKeeper": {
                "id": 15,
                "name": "Russel Wilson",
                "round": 9,
                "penalty": 11
            },
            "secondKeeper": null
        },
        {
            "id": 12,
            "name": "RC",
            "firstKeeper": {
                "id": 16,
                "name": "Antonio Brown",
                "round": 2,
                "penalty": 4
            },
            "secondKeeper": null
        }
    ]
}
