{
    "players": [
        {
            "id": "1",
            "firstName": "aa",
            "lastName": "aa",
            "rank": "1",
            "teamAbbr": "ne",
            "position": "wr"
        },
        {
            "id": "2",
            "firstName": "ab",
            "lastName": "ab",
            "rank": "2",
            "teamAbbr": "nyg",
            "position": "rb"
        },
        {
            "id": "3",
            "firstName": "ac",
            "lastName": "ac",
            "rank": "3",
            "teamAbbr": "gb",
            "position": "te"
        }
    ]
}