exports[`LeagueMember rendering component matches snapshot 1`] = `
<div
  className="league-member row">
  <div
    className="medium-3 columns">
    <Connect(PlayerName)
      member={
        Object {
          "id": 1,
        }
      } />
  </div>
  <div
    className="medium-1 columns" />
  <div
    className="medium-4 columns">
    <Connect(Keeper)
      identifier="firstKeeper"
      member={
        Object {
          "id": 1,
        }
      }
      players={
        Array [
          Object {
            "id": 1,
          },
          Object {
            "id": 2,
          },
        ]
      } />
  </div>
  <div
    className="medium-4 columns">
    <Connect(Keeper)
      identifier="secondKeeper"
      member={
        Object {
          "id": 1,
        }
      }
      players={
        Array [
          Object {
            "id": 1,
          },
          Object {
            "id": 2,
          },
        ]
      } />
  </div>
</div>
`;

exports[`LeagueMember rendering connected component matches snapshot 1`] = `
<LeagueMember
  member={
    Object {
      "id": 1,
    }
  }
  players={
    Array [
      Object {
        "id": 1,
      },
      Object {
        "id": 2,
      },
    ]
  }
  store={
    Object {
      "clearActions": [Function],
      "dispatch": [Function],
      "getActions": [Function],
      "getState": [Function],
      "replaceReducer": [Function],
      "subscribe": [Function],
    }
  } />
`;
