exports[`Round rendering component matches snapshot 1`] = `
<div
  className="row">
  <div
    className="medium-2 columns">
    <h1>
      Round 
      10
    </h1>
  </div>
  <div
    className="medium-10 columns picks">
    <div>
      1
    </div>
    <div>
      2
    </div>
  </div>
</div>
`;
