exports[`Selection rendering component matches snapshot 1`] = `
<div
  className="selection callout primary">
  <h5>
     
    bae
  </h5>
  <p>
    Pick: 
    a
  </p>
  <p>
    Position: 
    1
  </p>
</div>
`;
